{
    "name": "PuntoVenta",
    "fields": [
        {
            "fieldName": "codigo",
            "fieldType": "String",
            "fieldValidateRules": [
                "required"
            ]
        },
        {
            "fieldName": "puntoVentaEAN",
            "fieldType": "String"
        },
        {
            "fieldName": "nombre",
            "fieldType": "String"
        },
        {
            "fieldName": "codigoCentroVenta",
            "fieldType": "String"
        },
        {
            "fieldName": "frecuenciaPedido",
            "fieldType": "Long"
        },
        {
            "fieldName": "incluyeImpuesto",
            "fieldType": "String"
        }
    ],
    "relationships": [],
    "changelogDate": "20180823215412",
    "entityTableName": "punto_venta",
    "dto": "mapstruct",
    "pagination": "pagination",
    "service": "serviceImpl",
    "jpaMetamodelFiltering": false,
    "fluentMethods": true,
    "clientRootFolder": "",
    "applications": "*",
    "angularJSSuffix": "mrn",
    "microserviceName": "masterDocumentService"
}