{
    "name": "Documento",
    "fields": [
        {
            "fieldName": "idDocumentoPadre",
            "fieldType": "Long"
        },
        {
            "fieldName": "nombreDocumento",
            "fieldType": "String",
            "fieldValidateRules": [
                "required"
            ]
        },
        {
            "fieldName": "tipoDocumento",
            "fieldType": "String"
        },
        {
            "fieldName": "fechaDocumento",
            "fieldType": "Instant",
            "fieldValidateRules": [
                "required"
            ]
        },
        {
            "fieldName": "fechaEntrega",
            "fieldType": "Instant",
            "fieldValidateRules": [
                "required"
            ]
        },
        {
            "fieldName": "codPais",
            "fieldType": "String",
            "fieldValidateRules": [
                "required"
            ]
        },
        {
            "fieldName": "emisor",
            "fieldType": "String",
            "fieldValidateRules": [
                "required"
            ]
        },
        {
            "fieldName": "receptor",
            "fieldType": "String",
            "fieldValidateRules": [
                "required"
            ]
        },
        {
            "fieldName": "estado",
            "fieldType": "String",
            "fieldValidateRules": [
                "required"
            ]
        },
        {
            "fieldName": "idDocumentStorage",
            "fieldType": "String"
        },
        {
            "fieldName": "idDynamo",
            "fieldType": "String"
        },
        {
            "fieldName": "formato",
            "fieldType": "String"
        }
    ],
    "relationships": [
        {
            "relationshipType": "many-to-one",
            "relationshipName": "documentoPadre",
            "otherEntityName": "documento",
            "otherEntityField": "id"
        }
    ],
    "changelogDate": "20180809161908",
    "javadoc": "not an ignored comment",
    "entityTableName": "documento",
    "dto": "mapstruct",
    "pagination": "pagination",
    "service": "serviceImpl",
    "jpaMetamodelFiltering": false,
    "fluentMethods": true,
    "clientRootFolder": "",
    "applications": "*",
    "angularJSSuffix": "mrn",
    "microserviceName": "DocumentService"
}